Info	Operation: Login	Time: 01.09.2021 00:12:10.882	Message: UserId: 63, Username: ECBAR_Ldap	 
Info	Operation: Login	Time: 01.09.2021 00:14:00.152	Message: UserId: 63, Username: ECBAR_Ldap	 
Info	Operation: Login	Time: 01.09.2021 00:14:48.430	Message: UserId: 63, Username: ECBAR_Ldap	 
Info	Operation: Login	Time: 01.09.2021 00:18:19.482	Message: UserId: 63, Username: ECBAR_Ldap	 
Info	Operation: Login	Time: 01.09.2021 00:21:59.015	Message: UserId: 63, Username: ECBAR_Ldap	 
Info	Operation: Login	Time: 01.09.2021 00:24:46.385	Message: UserId: 63, Username: ECBAR_Ldap	 
Info	Operation: Login	Time: 01.09.2021 00:27:55.041	Message: UserId: 63, Username: ECBAR_Ldap	 
